^C:\USERS\LIAM\DOCUMENTS\VISUAL STUDIO 2010\PROJECTS\GALATICMARINE\GALATICMARINE\MAINGAME.CPP
/c /ZI /nologo /W3 /WX- /Od /Oy- /D WIN32 /D _DEBUG /D _CONSOLE /D _UNICODE /D UNICODE /Gm /EHsc /RTC1 /MDd /GS /fp:precise /Zc:wchar_t /Zc:forScope /Fo"Debug\\" /Fd"Debug\vc100.pdb" /Gd /TP /analyze- /errorReport:prompt C:\USERS\LIAM\DOCUMENTS\VISUAL STUDIO 2010\PROJECTS\GALATICMARINE\GALATICMARINE\MAINGAME.CPP
^C:\USERS\LIAM\DOCUMENTS\VISUAL STUDIO 2010\PROJECTS\GALATICMARINE\GALATICMARINE\MAINMENU.CPP
/c /ZI /nologo /W3 /WX- /Od /Oy- /D WIN32 /D _DEBUG /D _CONSOLE /D _UNICODE /D UNICODE /Gm /EHsc /RTC1 /MDd /GS /fp:precise /Zc:wchar_t /Zc:forScope /Fo"Debug\\" /Fd"Debug\vc100.pdb" /Gd /TP /analyze- /errorReport:prompt C:\USERS\LIAM\DOCUMENTS\VISUAL STUDIO 2010\PROJECTS\GALATICMARINE\GALATICMARINE\MAINMENU.CPP
